<?xml version="1.0" encoding="UTF-8" standalone="no"?>
<svg
   viewBox="0 0 453 68"
   version="1.1"
   id="svg6"
   sodipodi:docname="logo.svg"
   inkscape:version="1.1 (c68e22c387, 2021-05-23)"
   xmlns:inkscape="http://www.inkscape.org/namespaces/inkscape"
   xmlns:sodipodi="http://sodipodi.sourceforge.net/DTD/sodipodi-0.dtd"
   xmlns="http://www.w3.org/2000/svg"
   xmlns:svg="http://www.w3.org/2000/svg">
  <defs
     id="defs10">
    <inkscape:path-effect
       effect="powerclip"
       id="path-effect47"
       is_visible="true"
       lpeversion="1"
       inverse="true"
       flatten="false"
       hide_clip="false"
       message="Use fill-rule evenodd on &lt;b&gt;fill and stroke&lt;/b&gt; dialog if no flatten result after convert clip to paths." />
    <clipPath
       clipPathUnits="userSpaceOnUse"
       id="clipPath31">
      <g
         id="g45"
         style="display:none;fill:#ffffff;fill-opacity:1">
        <path
           style="fill:#ffffff;fill-opacity:1;stroke-width:0.0625"
           d="m 25.249184,20.48159 c -0.749262,-0.259717 -1.278895,-0.73199 -1.613901,-1.439114 -0.183158,-0.386605 -0.197742,-0.466003 -0.197232,-1.073726 4.92e-4,-0.585386 0.01923,-0.696272 0.173572,-1.026883 0.344503,-0.737973 0.912185,-1.242102 1.660585,-1.474678 0.390874,-0.12147 0.636119,-0.123439 15.377495,-0.123439 13.337208,0 15.021142,0.01064 15.352791,0.097 0.998904,0.260113 1.743716,1.0806 1.921127,2.116317 0.193981,1.132454 -0.4292,2.297559 -1.500257,2.804895 L 56,20.5625 40.78125,20.576347 c -14.312059,0.01302 -15.237416,0.0074 -15.532066,-0.09476 z"
           id="path33" />
        <path
           style="fill:#ffffff;fill-opacity:1;stroke-width:0.0625"
           d="m 14.846581,20.587977 c -0.452527,-0.08871 -0.947113,-0.368073 -1.333111,-0.753005 -1.301643,-1.29805 -0.898974,-3.455805 0.792627,-4.247401 1.402164,-0.656151 3.078564,0.105772 3.568813,1.622024 0.174203,0.538779 0.113185,1.360014 -0.141457,1.903845 -0.510726,1.090745 -1.712733,1.704698 -2.886872,1.474537 z"
           id="path35" />
        <path
           style="fill:#ffffff;fill-opacity:1;stroke-width:0.0625"
           d="m 14.725289,36.557343 c -0.494725,-0.133039 -0.904495,-0.378453 -1.260597,-0.754979 -0.967005,-1.022465 -0.965988,-2.583339 0.0024,-3.607214 1.369446,-1.447988 3.666535,-0.951466 4.377688,0.946248 0.110919,0.295991 0.13075,0.4629 0.113576,0.955964 -0.01889,0.542332 -0.04231,0.640837 -0.254227,1.069285 -0.560498,1.133202 -1.794302,1.709222 -2.978791,1.390696 z"
           id="path37" />
        <path
           style="fill:#ffffff;fill-opacity:1;stroke-width:0.0625"
           d="m 25.174183,36.469036 c -0.672524,-0.239654 -1.215201,-0.743416 -1.540545,-1.430075 -0.18144,-0.382941 -0.196062,-0.463137 -0.195122,-1.070211 9.44e-4,-0.609923 0.01513,-0.685234 0.200925,-1.066827 0.251796,-0.517141 0.595723,-0.907847 1.025429,-1.164902 0.706063,-0.422374 -0.477579,-0.39343 16.020136,-0.391743 9.840493,0.001 15.033548,0.0231 15.214078,0.06471 1.479413,0.341066 2.387735,1.890802 1.946162,3.32045 -0.231657,0.750019 -0.70614,1.29234 -1.431285,1.635919 L 56,36.5625 40.75,36.57382 c -14.717716,0.01093 -15.261372,0.0073 -15.575817,-0.104784 z"
           id="path39" />
        <path
           style="fill:#ffffff;fill-opacity:1;stroke-width:0.0625"
           d="M 25.650191,52.590077 C 24.93974,52.484585 24.18793,51.997527 23.806342,51.395544 22.912125,49.984854 23.58178,48.092137 25.1875,47.49183 c 0.301504,-0.112719 0.839209,-0.117476 15.28125,-0.135196 10.988225,-0.01348 15.067917,5.28e-4 15.341667,0.05269 1.148955,0.218905 2.052021,1.227674 2.139961,2.390442 0.08949,1.183284 -0.611351,2.242031 -1.77956,2.688344 L 55.8125,52.625 40.90625,52.6335 C 32.707813,52.6382 25.842586,52.61864 25.650191,52.59007 Z"
           id="path41" />
        <path
           style="fill:#ffffff;fill-opacity:1;stroke-width:0.0625"
           d="m 14.71203,52.56969 c -1.305361,-0.378255 -2.154732,-1.675625 -1.941089,-2.964915 0.09556,-0.576695 0.378092,-1.114457 0.790371,-1.504373 1.305982,-1.235144 3.347061,-0.875803 4.14082,0.72901 0.214072,0.432808 0.237251,0.529913 0.256175,1.073226 0.01717,0.493064 -0.0027,0.659973 -0.113576,0.955964 -0.283686,0.757016 -0.850669,1.348821 -1.542002,1.609505 -0.451052,0.170082 -1.191195,0.217347 -1.590699,0.101583 z"
           id="path43" />
      </g>
      <path
         id="lpe_path-effect47"
         style="fill:#ffffff;fill-opacity:1"
         class="powerclip"
         d="m -3.025,-3.025 h 74.05 v 74.05 h -74.05 z m 28.274184,23.50659 v -3e-6 c 0.29465,0.10216 1.220007,0.10778 15.532066,0.09476 L 56,20.5625 56.423364,20.361962 c 1.071057,-0.507336 1.694238,-1.672441 1.500257,-2.804895 -0.177411,-1.035717 -0.922223,-1.856204 -1.921127,-2.116317 -0.331649,-0.08636 -2.015583,-0.097 -15.352791,-0.097 -14.741376,0 -14.986621,0.002 -15.377495,0.123439 -0.7484,0.232576 -1.316082,0.736705 -1.660585,1.474678 -0.154342,0.330611 -0.17308,0.441497 -0.173572,1.026883 -5.1e-4,0.607723 0.01407,0.687121 0.197232,1.073726 0.335006,0.707124 0.864639,1.179397 1.613901,1.439114 z m -10.402603,0.106387 c 1.174139,0.230161 2.376146,-0.383792 2.886872,-1.474537 0.254642,-0.543831 0.31566,-1.365066 0.141457,-1.903845 -0.490249,-1.516252 -2.166649,-2.278175 -3.568813,-1.622024 -1.691601,0.791596 -2.09427,2.949351 -0.792627,4.247401 0.385998,0.384932 0.880584,0.664295 1.333111,0.753005 z m -0.121292,15.969366 h 4.9e-5 c 1.184489,0.318526 2.418293,-0.257494 2.978791,-1.390696 0.211917,-0.428448 0.235337,-0.526953 0.254227,-1.069285 0.01717,-0.493064 -0.0027,-0.659973 -0.113576,-0.955964 -0.711153,-1.897714 -3.008242,-2.394236 -4.377688,-0.946248 -0.968388,1.023875 -0.969405,2.584749 -0.0024,3.607214 0.356102,0.376526 0.765872,0.62194 1.260597,0.754979 z m 10.448894,-0.08831 C 25.488628,36.58112 26.032284,36.58475 40.75,36.57382 L 56,36.5625 56.413961,36.366357 c 0.725145,-0.343579 1.199628,-0.8859 1.431285,-1.635919 0.441573,-1.429648 -0.466749,-2.979384 -1.946162,-3.32045 -0.18053,-0.04161 -5.373585,-0.06371 -15.214078,-0.06471 -16.497715,-0.0017 -15.314073,-0.03063 -16.020136,0.391743 -0.429706,0.257055 -0.773633,0.647761 -1.025429,1.164902 -0.185795,0.381593 -0.199981,0.456904 -0.200925,1.066827 -9.4e-4,0.607074 0.01368,0.68727 0.195122,1.070211 0.325344,0.686659 0.868021,1.190421 1.540545,1.430075 z m 0.476008,16.121041 v -7e-6 c 0.192395,0.02857 7.057622,0.04813 15.256059,0.04343 L 55.8125,52.625 56.170818,52.48811 c 1.168209,-0.446313 1.86905,-1.50506 1.77956,-2.688344 -0.08794,-1.162768 -0.991006,-2.171537 -2.139961,-2.390442 -0.27375,-0.05216 -4.353442,-0.06617 -15.341667,-0.05269 -14.442041,0.01772 -14.979746,0.02248 -15.28125,0.135196 -1.60572,0.600307 -2.275375,2.493024 -1.381158,3.903714 0.381588,0.601983 1.133398,1.089041 1.843849,1.194533 z M 14.71203,52.56969 c 0.399504,0.115764 1.139647,0.0685 1.590699,-0.101583 0.691333,-0.260684 1.258316,-0.852489 1.542002,-1.609505 0.110876,-0.295991 0.130746,-0.4629 0.113576,-0.955964 -0.01892,-0.543313 -0.0421,-0.640418 -0.256175,-1.073226 -0.793759,-1.604813 -2.834838,-1.964154 -4.14082,-0.72901 -0.412279,0.389916 -0.694811,0.927678 -0.790371,1.504373 -0.213643,1.28929 0.635728,2.58666 1.941089,2.964915 z" />
    </clipPath>
  </defs>
  <sodipodi:namedview
     id="namedview8"
     pagecolor="#ffffff"
     bordercolor="#666666"
     borderopacity="1.0"
     inkscape:pageshadow="2"
     inkscape:pageopacity="0.0"
     inkscape:pagecheckerboard="0"
     showgrid="false"
     inkscape:zoom="4"
     inkscape:cx="234.75"
     inkscape:cy="30.125"
     inkscape:window-width="2560"
     inkscape:window-height="1377"
     inkscape:window-x="2552"
     inkscape:window-y="-8"
     inkscape:window-maximized="1"
     inkscape:current-layer="svg6"
     inkscape:snap-grids="true"
     inkscape:snap-page="false"
     inkscape:snap-to-guides="true" />
  <path
     d="M 64.6,16.2 C 63,9.9 58.1,5 51.8,3.4 40,1.5 28,1.5 16.2,3.4 9.9,5 5,9.9 3.4,16.2 1.5,28 1.5,40 3.4,51.8 5,58.1 9.9,63 16.2,64.6 28,66.5 40,66.5 51.8,64.6 58.1,63 63,58.1 64.6,51.8 66.5,40 66.5,28 64.6,16.2 Z"
     fill="#206bc4"
     id="path2"
     sodipodi:nodetypes="ccccccccc"
     clip-path="url(#clipPath31)"
     inkscape:path-effect="#path-effect47"
     inkscape:original-d="M 64.6,16.2 C 63,9.9 58.1,5 51.8,3.4 40,1.5 28,1.5 16.2,3.4 9.9,5 5,9.9 3.4,16.2 1.5,28 1.5,40 3.4,51.8 5,58.1 9.9,63 16.2,64.6 28,66.5 40,66.5 51.8,64.6 58.1,63 63,58.1 64.6,51.8 66.5,40 66.5,28 64.6,16.2 Z" />
  <g
     aria-label="Kennzeichenliste"
     id="text1727"
     style="font-size:74.6667px;line-height:1.25;font-family:'Berlin Sans FB';-inkscape-font-specification:'Berlin Sans FB'">
    <path
       d="M 98.182306,60.25 H 85.567717 L 81.156256,40.854157 V 60.25 H 69.671876 V 7.9687251 h 11.48438 V 25.395817 L 86.187509,7.9687251 h 10.645838 l -7.07292,23.8437609 z"
       style="font-family:Haettenschweiler;-inkscape-font-specification:Haettenschweiler"
       id="path833" />
    <path
       d="m 124.03128,42.312491 h -13.96355 v 9.880213 q 0,2.151043 1.82292,2.151043 1.78646,0 1.78646,-2.151043 V 43.66145 h 10.35417 v 8.604171 q 0,8.567713 -12.21355,8.567713 -12.104173,0 -12.104173,-8.932296 V 26.562484 q 0,-8.932296 12.104173,-8.932296 12.21355,0 12.21355,8.567712 z m -10.35417,-6.343753 v -9.697921 q 0,-2.078126 -1.78646,-2.078126 -1.82292,0 -1.82292,2.078126 v 9.697921 z"
       style="font-family:Haettenschweiler;-inkscape-font-specification:Haettenschweiler"
       id="path835" />
    <path
       d="M 150.68233,60.25 H 140.2917 V 26.270817 q 0,-1.932292 -1.78646,-1.932292 -1.78646,0 -1.78646,1.859375 V 60.25 H 126.32815 V 17.921855 h 10.39063 v 1.421875 q 2.07813,-1.713542 6.41667,-1.713542 2.8073,0 5.17709,1.531251 2.36979,1.53125 2.36979,4.484377 z"
       style="font-family:Haettenschweiler;-inkscape-font-specification:Haettenschweiler"
       id="path837" />
    <path
       d="M 177.26047,60.25 H 166.86984 V 26.270817 q 0,-1.932292 -1.78646,-1.932292 -1.78646,0 -1.78646,1.859375 V 60.25 H 152.90629 V 17.921855 h 10.39063 v 1.421875 q 2.07813,-1.713542 6.41667,-1.713542 2.8073,0 5.17709,1.531251 2.36979,1.53125 2.36979,4.484377 z"
       style="font-family:Haettenschweiler;-inkscape-font-specification:Haettenschweiler"
       id="path839" />
    <path
       d="m 204.2761,60.25 h -24.93751 v -5.833336 l 11.77605,-29.713556 h -11.1198 v -6.781253 h 23.15106 v 5.723961 l -11.95834,29.895847 h 13.08854 z"
       style="font-family:Haettenschweiler;-inkscape-font-specification:Haettenschweiler"
       id="path841" />
    <path
       d="M 230.41674,42.312491 H 216.4532 v 9.880213 q 0,2.151043 1.82291,2.151043 1.78646,0 1.78646,-2.151043 V 43.66145 h 10.35417 v 8.604171 q 0,8.567713 -12.21354,8.567713 -12.10417,0 -12.10417,-8.932296 V 26.562484 q 0,-8.932296 12.10417,-8.932296 12.21354,0 12.21354,8.567712 z m -10.35417,-6.343753 v -9.697921 q 0,-2.078126 -1.78646,-2.078126 -1.82291,0 -1.82291,2.078126 v 9.697921 z"
       style="font-family:Haettenschweiler;-inkscape-font-specification:Haettenschweiler"
       id="path843" />
    <path
       d="M 242.95843,15.58852 H 232.5678 V 7.9687251 h 10.39063 z m 0,44.66148 H 232.5678 V 17.921855 h 10.39063 z"
       style="font-family:Haettenschweiler;-inkscape-font-specification:Haettenschweiler"
       id="path845" />
    <path
       d="m 269.42718,36.661447 h -10.35417 v -10.39063 q 0,-2.078126 -1.78646,-2.078126 -1.82292,0 -1.82292,2.078126 v 25.921887 q 0,2.151043 1.82292,2.151043 1.78646,0 1.78646,-2.151043 V 41.947908 h 10.35417 v 10.317713 q 0,8.567713 -11.9948,8.567713 -12.32292,0 -12.32292,-8.932296 V 26.562484 q 0,-8.932296 12.32292,-8.932296 11.9948,0 11.9948,8.567712 z"
       style="font-family:Haettenschweiler;-inkscape-font-specification:Haettenschweiler"
       id="path847" />
    <path
       d="M 296.07823,60.25 H 285.72406 V 26.124984 q 0,-1.932293 -1.78646,-1.932293 -1.82291,0 -1.82291,1.859376 V 60.25 H 271.76051 V 7.9687251 h 10.35418 V 19.197897 q 1.85937,-1.567709 6.45312,-1.567709 3.06251,0 5.28646,1.604167 2.22396,1.604168 2.22396,4.265627 z"
       style="font-family:Haettenschweiler;-inkscape-font-specification:Haettenschweiler"
       id="path849" />
    <path
       d="M 322.76574,42.312491 H 308.8022 v 9.880213 q 0,2.151043 1.82291,2.151043 1.78646,0 1.78646,-2.151043 V 43.66145 h 10.35417 v 8.604171 q 0,8.567713 -12.21354,8.567713 -12.10418,0 -12.10418,-8.932296 V 26.562484 q 0,-8.932296 12.10418,-8.932296 12.21354,0 12.21354,8.567712 z m -10.35417,-6.343753 v -9.697921 q 0,-2.078126 -1.78646,-2.078126 -1.82291,0 -1.82291,2.078126 v 9.697921 z"
       style="font-family:Haettenschweiler;-inkscape-font-specification:Haettenschweiler"
       id="path851" />
    <path
       d="M 349.41681,60.25 H 339.02618 V 26.270817 q 0,-1.932292 -1.78646,-1.932292 -1.78646,0 -1.78646,1.859375 V 60.25 H 325.06263 V 17.921855 h 10.39063 v 1.421875 q 2.07812,-1.713542 6.41667,-1.713542 2.80729,0 5.17708,1.531251 2.3698,1.53125 2.3698,4.484377 z"
       style="font-family:Haettenschweiler;-inkscape-font-specification:Haettenschweiler"
       id="path853" />
    <path
       d="M 362.14077,60.25 H 351.75014 V 7.9687251 h 10.39063 z"
       style="font-family:Haettenschweiler;-inkscape-font-specification:Haettenschweiler"
       id="path855" />
    <path
       d="M 374.71891,15.58852 H 364.32828 V 7.9687251 h 10.39063 z m 0,44.66148 H 364.32828 V 17.921855 h 10.39063 z"
       style="font-family:Haettenschweiler;-inkscape-font-specification:Haettenschweiler"
       id="path857" />
    <path
       d="m 376.86995,43.22395 h 10.35418 v 8.968754 q 0,2.151043 1.75,2.151043 1.75,0 1.75,-4.119793 0,-5.359378 -2.15104,-6.927087 -8.13022,-4.265627 -9.8073,-5.942711 -1.67708,-1.713543 -1.67708,-5.104169 v -5.687503 q 0,-8.932296 12.10417,-8.932296 11.77604,0 11.77604,8.567712 v 8.348963 H 390.8335 l 0.21875,-5.067711 q 0,-5.286461 -1.93229,-5.286461 -1.93229,0 -1.93229,3.31771 0,3.427085 0.83854,5.177086 0.875,1.750001 9.55209,6.015628 3.60937,2.588543 3.60937,6.85417 v 6.343753 q 0,8.932296 -12.28646,8.932296 -12.03126,0 -12.03126,-8.567713 z"
       style="font-family:Haettenschweiler;-inkscape-font-specification:Haettenschweiler"
       id="path859" />
    <path
       d="m 423.9012,60.25 h -6.5625 q -7.03646,0 -8.42188,-2.114584 -1.38541,-2.114585 -1.38541,-8.130213 V 24.192691 h -4.63022 v -6.270836 h 4.63022 V 9.3906007 h 10.39063 v 8.5312543 h 5.61458 v 6.270836 h -5.61458 v 25.739596 q 0,1.859376 1.09375,2.515626 1.1302,0.619792 4.88541,0.619792 z"
       style="font-family:Haettenschweiler;-inkscape-font-specification:Haettenschweiler"
       id="path861" />
    <path
       d="m 450.1877,42.312491 h -13.96355 v 9.880213 q 0,2.151043 1.82291,2.151043 1.78646,0 1.78646,-2.151043 V 43.66145 h 10.35418 v 8.604171 q 0,8.567713 -12.21355,8.567713 -12.10417,0 -12.10417,-8.932296 V 26.562484 q 0,-8.932296 12.10417,-8.932296 12.21355,0 12.21355,8.567712 z m -10.35418,-6.343753 v -9.697921 q 0,-2.078126 -1.78646,-2.078126 -1.82291,0 -1.82291,2.078126 v 9.697921 z"
       style="font-family:Haettenschweiler;-inkscape-font-specification:Haettenschweiler"
       id="path863" />
  </g>
</svg>
