<?xml version="1.0" encoding="UTF-8" standalone="no"?>
<svg
   class="icon icon-tabler icon-tabler-grid-dots"
   width="24"
   height="24"
   viewBox="0 0 24 24"
   stroke-width="2"
   stroke="currentColor"
   fill="none"
   stroke-linecap="round"
   stroke-linejoin="round"
   version="1.1"
   id="svg22"
   sodipodi:docname="grid-dots.svg"
   inkscape:version="1.1.2 (b8e25be833, 2022-02-05)"
   xmlns:inkscape="http://www.inkscape.org/namespaces/inkscape"
   xmlns:sodipodi="http://sodipodi.sourceforge.net/DTD/sodipodi-0.dtd"
   xmlns:xlink="http://www.w3.org/1999/xlink"
   xmlns="http://www.w3.org/2000/svg"
   xmlns:svg="http://www.w3.org/2000/svg">
  <defs
     id="defs26">
    <linearGradient
       id="linearGradient909"
       inkscape:swatch="solid">
      <stop
         style="stop-color:#ffffff;stop-opacity:1;"
         offset="0"
         id="stop907" />
    </linearGradient>
    <linearGradient
       id="linearGradient885"
       inkscape:swatch="solid">
      <stop
         style="stop-color:#ff0000;stop-opacity:1;"
         offset="0"
         id="stop883" />
    </linearGradient>
    <linearGradient
       id="linearGradient845"
       inkscape:swatch="solid">
      <stop
         style="stop-color:#ffffff;stop-opacity:1;"
         offset="0"
         id="stop843" />
    </linearGradient>
    <linearGradient
       inkscape:collect="always"
       xlink:href="#linearGradient909"
       id="linearGradient911"
       x1="3"
       y1="5"
       x2="7"
       y2="5"
       gradientUnits="userSpaceOnUse" />
    <linearGradient
       inkscape:collect="always"
       xlink:href="#linearGradient909"
       id="linearGradient913"
       x1="10"
       y1="5"
       x2="14"
       y2="5"
       gradientUnits="userSpaceOnUse" />
    <linearGradient
       inkscape:collect="always"
       xlink:href="#linearGradient909"
       id="linearGradient915"
       x1="17"
       y1="5"
       x2="21"
       y2="5"
       gradientUnits="userSpaceOnUse" />
    <linearGradient
       inkscape:collect="always"
       xlink:href="#linearGradient909"
       id="linearGradient917"
       x1="17"
       y1="12"
       x2="21"
       y2="12"
       gradientUnits="userSpaceOnUse" />
    <linearGradient
       inkscape:collect="always"
       xlink:href="#linearGradient909"
       id="linearGradient919"
       x1="10"
       y1="12"
       x2="14"
       y2="12"
       gradientUnits="userSpaceOnUse" />
    <linearGradient
       inkscape:collect="always"
       xlink:href="#linearGradient909"
       id="linearGradient921"
       x1="3"
       y1="12"
       x2="7"
       y2="12"
       gradientUnits="userSpaceOnUse" />
    <linearGradient
       inkscape:collect="always"
       xlink:href="#linearGradient909"
       id="linearGradient923"
       x1="3"
       y1="19"
       x2="7"
       y2="19"
       gradientUnits="userSpaceOnUse" />
    <linearGradient
       inkscape:collect="always"
       xlink:href="#linearGradient909"
       id="linearGradient925"
       x1="10"
       y1="19"
       x2="14"
       y2="19"
       gradientUnits="userSpaceOnUse" />
    <linearGradient
       inkscape:collect="always"
       xlink:href="#linearGradient909"
       id="linearGradient927"
       x1="17"
       y1="19"
       x2="21"
       y2="19"
       gradientUnits="userSpaceOnUse" />
  </defs>
  <sodipodi:namedview
     id="namedview24"
     pagecolor="#505050"
     bordercolor="#eeeeee"
     borderopacity="1"
     inkscape:pageshadow="0"
     inkscape:pageopacity="0"
     inkscape:pagecheckerboard="0"
     showgrid="false"
     inkscape:zoom="34.625"
     inkscape:cx="11.98556"
     inkscape:cy="11.98556"
     inkscape:window-width="1920"
     inkscape:window-height="1017"
     inkscape:window-x="-8"
     inkscape:window-y="-8"
     inkscape:window-maximized="1"
     inkscape:current-layer="svg22" />
  <path
     stroke="none"
     d="M0 0h24v24H0z"
     fill="none"
     id="path2" />
  <circle
     cx="5"
     cy="5"
     r="1"
     id="circle4"
     style="fill-opacity:1;fill:none;stroke:url(#linearGradient911)" />
  <circle
     cx="12"
     cy="5"
     r="1"
     id="circle6"
     style="fill-opacity:1;fill:none;stroke:url(#linearGradient913)" />
  <circle
     cx="19"
     cy="5"
     r="1"
     id="circle8"
     style="fill-opacity:1;fill:none;stroke:url(#linearGradient915)" />
  <circle
     cx="5"
     cy="12"
     r="1"
     id="circle10"
     style="fill-opacity:1;fill:none;stroke:url(#linearGradient921)" />
  <circle
     cx="12"
     cy="12"
     r="1"
     id="circle12"
     style="fill-opacity:1;fill:none;stroke:url(#linearGradient919)" />
  <circle
     cx="19"
     cy="12"
     r="1"
     id="circle14"
     style="fill-opacity:1;fill:none;stroke:url(#linearGradient917)" />
  <circle
     cx="5"
     cy="19"
     r="1"
     id="circle16"
     style="fill-opacity:1;fill:none;stroke:url(#linearGradient923)" />
  <circle
     cx="12"
     cy="19"
     r="1"
     id="circle18"
     style="fill-opacity:1;fill:none;stroke:url(#linearGradient925)" />
  <circle
     cx="19"
     cy="19"
     r="1"
     id="circle20"
     style="fill-opacity:1;fill:none;stroke:url(#linearGradient927)" />
</svg>
