<?xml version="1.0" encoding="UTF-8" standalone="no"?>
<svg
   class="icon icon-tabler icon-tabler-layout-grid"
   width="24"
   height="24"
   viewBox="0 0 24 24"
   stroke-width="2"
   stroke="currentColor"
   fill="none"
   stroke-linecap="round"
   stroke-linejoin="round"
   version="1.1"
   id="svg12"
   sodipodi:docname="grid.svg"
   inkscape:version="1.1 (c68e22c387, 2021-05-23)"
   xmlns:inkscape="http://www.inkscape.org/namespaces/inkscape"
   xmlns:sodipodi="http://sodipodi.sourceforge.net/DTD/sodipodi-0.dtd"
   xmlns="http://www.w3.org/2000/svg"
   xmlns:svg="http://www.w3.org/2000/svg">
  <defs
     id="defs16" />
  <sodipodi:namedview
     id="namedview14"
     pagecolor="#ffffff"
     bordercolor="#666666"
     borderopacity="1.0"
     inkscape:pageshadow="2"
     inkscape:pageopacity="0.0"
     inkscape:pagecheckerboard="0"
     showgrid="false"
     inkscape:zoom="31.375"
     inkscape:cx="12"
     inkscape:cy="12"
     inkscape:window-width="2560"
     inkscape:window-height="1377"
     inkscape:window-x="2552"
     inkscape:window-y="-8"
     inkscape:window-maximized="1"
     inkscape:current-layer="svg12" />
  <path
     stroke="none"
     d="M0 0h24v24H0z"
     fill="none"
     id="path2" />
  <rect
     x="4"
     y="4"
     width="6"
     height="6"
     rx="1"
     id="rect4"
     style="fill:none;fill-opacity:1;stroke:#ffffff;stroke-opacity:1" />
  <rect
     x="14"
     y="4"
     width="6"
     height="6"
     rx="1"
     id="rect6"
     style="stroke:#ffffff;stroke-opacity:1" />
  <rect
     x="4"
     y="14"
     width="6"
     height="6"
     rx="1"
     id="rect8"
     style="stroke:#ffffff;stroke-opacity:1" />
  <rect
     x="14"
     y="14"
     width="6"
     height="6"
     rx="1"
     id="rect10"
     style="stroke:#ffffff;stroke-opacity:1" />
</svg>
